…
    # double &&s will only compare the first element - use it when you are trying to evaluate whether a single thing is true or false, eg. is this value greater than one? are my vectors the same length?
    (max(x) > 20) && (min(x) <= 5)

    ## [1] TRUE

This can be used in indexing, either by explicitly referring to the
object within the indexing operator, or by using the `with` function

    # Get all the rows in diamonds who are Good or Very Good
    # remember the comma at the end, we want to select all columns
    df[df$cut=="Good" | df$cut=="Very Good",]

    ## # A tibble: 16,988 x 10
    ##    carat       cut color clarity depth table price     x     y     z
    ##    <dbl>     <ord> <ord>   <ord> <dbl> <dbl> <int> <dbl> <dbl> <dbl>
    ##  1  0.23      Good     E     VS1  56.9    65   327  4.05  4.07  2.31
    ##  2  0.31      Good     J     SI2  63.3    58   335  4.34  4.35  2.75
    ##  3  0.24 Very Good     J    VVS2  62.8    57   336  3.94  3.96  2.48
    ##  4  0.24 Very Good     I    VVS1  62.3    57   336  3.95  3.98  2.47
    ##  5  0.26 Very Good     H     SI1  61.9    55   337  4.07  4.11  2.53
    ##  6  0.23 Very Good     H     VS1  59.4    61   338  4.00  4.05  2.39
    ##  7  0.30      Good     J     SI1  64.0    55   339  4.25  4.28  2.73
    ##  8  0.30      Good     J     SI1  63.4    54   351  4.23  4.29  2.70
    ##  9  0.30      Good     J     SI1  63.8    56   351  4.23  4.26  2.71
    ## 10  0.30 Very Good     J     SI1  62.7    59   351  4.21  4.27  2.66
    ## # ... with 16,978 more rows

    # you can combine boolean vectors arbitrarily

    df[df$cut=="Good" & df$carat>1,]

    ## # A tibble: 1,579 x 10
    ##    carat   cut color clarity depth table price     x     y     z
    ##    <dbl> <ord> <ord>   <ord> <dbl> <dbl> <int> <dbl> <dbl> <dbl>
    ##  1  1.01  Good     I      I1  63.1    57  2844  6.35  6.39  4.02
    ##  2  1.01  Good     H      I1  64.2    61  2846  6.25  6.18  3.99
    ##  3  1.03  Good     J     SI1  63.6    57  2855  6.38  6.29  4.03
    ##  4  1.04  Good     I     SI2  59.9    64  2970  6.51  6.45  3.88
    ##  5  1.01  Good     E      I1  63.8    57  3032  6.40  6.33  4.06
    ##  6  1.02  Good     E      I1  63.1    60  3051  6.31  6.40  4.01
    ##  7  1.01  Good     J     SI2  63.7    60  3088  6.40  6.29  4.05
    ##  8  1.29  Good     I      I1  64.2    54  3098  6.93  6.83  4.42
    ##  9  1.52  Good     E      I1  57.3    58  3105  7.53  7.42  4.28
    ## 10  1.52  Good     E      I1  57.3    58  3105  7.53  7.42  4.28
    ## # ... with 1,569 more rows
…
    ## Loading tidyverse: ggplot2
    ## Loading tidyverse: tibble
    ## Loading tidyverse: tidyr
    ## Loading tidyverse: readr
    ## Loading tidyverse: purrr

    ## Conflicts with tidy packages ----------------------------------------------

    ## filter(): dplyr, stats
    ## lag():    dplyr, stats

    ## # A tibble: 100 x 21
    ##      pid agreeableness_t1 conscientiousness_t1 neuroticism_t1
    ##    <dbl>            <dbl>                <dbl>          <dbl>
    ##  1     1         3.295400             2.501786       1.538106
    ##  2     2         3.348223             3.214239       2.793563
    ##  3     3         3.171709             3.319660       2.703627
    ##  4     4         2.727071             2.010532       1.055255
    ##  5     5         2.313266             3.312556       3.085609
    ##  6     6         3.620608             3.214379       3.977915
    ##  7     7         1.201265             2.988343       2.507895
    ##  8     8         2.666801             3.815197       3.335316
    ##  9     9         2.467433             4.656694       1.964536
    ## 10    10         2.895284             2.388371       2.320890
    ## # ... with 90 more rows, and 17 more variables: extraversion_t1 <dbl>,
    ## #   openness_t1 <dbl>, agreeableness_t2 <dbl>, conscientiousness_t2 <dbl>,
    ## #   neuroticism_t2 <dbl>, extraversion_t2 <dbl>, openness_t2 <dbl>,
    ## #   agreeableness_t3 <dbl>, conscientiousness_t3 <dbl>,
    ## #   neuroticism_t3 <dbl>, extraversion_t3 <dbl>, openness_t3 <dbl>,
    ## #   agreeableness_t4 <dbl>, conscientiousness_t4 <dbl>,
    ## #   neuroticism_t4 <dbl>, extraversion_t4 <dbl>, openness_t4 <dbl>
…
What would make this data *long*? There are two dimensions that we could
lengthen the data on, but the more common one you might see is time.
That is, we'd have a row for each participant X time point combination,
like the following:

So we now have a row for each participant at each time point, and a
column for each of the Big 5. We could also make it a little longer, by
making each row correspond to a score on each Big Five trait for each
participant at each time point, like so:

    sample_b5_data_long %>%
      gather(trait, score, agreeableness:openness)

    ## # A tibble: 2,000 x 4
    ##      pid  time         trait    score
    ##    <dbl> <chr>         <chr>    <dbl>
    ##  1     1    t1 agreeableness 3.295400
    ##  2     1    t2 agreeableness 3.764385
    ##  3     1    t3 agreeableness 4.091583
    ##  4     1    t4 agreeableness 4.629702
    ##  5     2    t1 agreeableness 3.348223
    ##  6     2    t2 agreeableness 4.152176
    ##  7     2    t3 agreeableness 4.594936
    ##  8     2    t4 agreeableness 5.410165
    ##  9     3    t1 agreeableness 3.171709
    ## 10     3    t2 agreeableness 3.649307
    ## # ... with 1,990 more rows
…
At the start of the data manipulation section, we talked about long vs
wide data. Now let's talk about how to actually lengthen or widen or
data. We'll use the same dataset we made up for the starting example: 4
year longitudinal study where the Big Five were measured annually.

### Wide to Long

We'll start with lengthening our data. We currently have our data in a
wide format that looks something like this for now:

    sample_b5_data_wide

    ## # A tibble: 100 x 21
    ##      pid agreeableness_t1 conscientiousness_t1 neuroticism_t1
    ##    <dbl>            <dbl>                <dbl>          <dbl>
    ##  1     1         3.295400             2.501786       1.538106
    ##  2     2         3.348223             3.214239       2.793563
    ##  3     3         3.171709             3.319660       2.703627
    ##  4     4         2.727071             2.010532       1.055255
    ##  5     5         2.313266             3.312556       3.085609
    ##  6     6         3.620608             3.214379       3.977915
    ##  7     7         1.201265             2.988343       2.507895
    ##  8     8         2.666801             3.815197       3.335316
    ##  9     9         2.467433             4.656694       1.964536
    ## 10    10         2.895284             2.388371       2.320890
    ## # ... with 90 more rows, and 17 more variables: extraversion_t1 <dbl>,
    ## #   openness_t1 <dbl>, agreeableness_t2 <dbl>, conscientiousness_t2 <dbl>,
    ## #   neuroticism_t2 <dbl>, extraversion_t2 <dbl>, openness_t2 <dbl>,
    ## #   agreeableness_t3 <dbl>, conscientiousness_t3 <dbl>,
    ## #   neuroticism_t3 <dbl>, extraversion_t3 <dbl>, openness_t3 <dbl>,
    ## #   agreeableness_t4 <dbl>, conscientiousness_t4 <dbl>,
    ## #   neuroticism_t4 <dbl>, extraversion_t4 <dbl>, openness_t4 <dbl>

And say we want it to lengthen it to look like this:

    ## # A tibble: 400 x 7
    ##      pid  time agreeableness conscientiousness extraversion neuroticism
    ##  * <dbl> <chr>         <dbl>             <dbl>        <dbl>       <dbl>
    ##  1     1    t1      3.295400          2.501786     3.851280    1.538106
    ##  2     1    t2      3.764385          3.010544     4.137145    2.093680
    ##  3     1    t3      4.091583          3.608969     4.791821    2.607097
    ##  4     1    t4      4.629702          4.273238     4.994428    2.858696
    ##  5     2    t1      3.348223          3.214239     3.901119    2.793563
    ##  6     2    t2      4.152176          3.829460     4.021668    3.670314
    ##  7     2    t3      4.594936          4.123784     4.739197    4.150409
    ##  8     2    t4      5.410165          4.785196     5.376520    4.243513
    ##  9     3    t1      3.171709          3.319660     1.947245    2.703627
    ## 10     3    t2      3.649307          3.698359     2.657443    3.066518
    ## # ... with 390 more rows, and 1 more variables: openness <dbl>
…
If you don't name any columns, it will select all of them. The syntax
for this part works similarly to `select()`. You can name a series of
variables, like `agreeableness_t1:openness_t4` , or name each column
individually separated by a comma
`agreeabeleness_t1, conscientiousness, ..., openness_t4`, or you can say
which columns you *do not* want with a minus sign in front of the column
name. Since we want to include all of our columns except participant id
(`pid`), we'll use the minus sign to tell `gather()` include everything
but `pid`

    sample_b5_data_wide %>%
      gather(variable, score, -pid)

    ## # A tibble: 2,000 x 3
    ##      pid         variable    score
    ##    <dbl>            <chr>    <dbl>
    ##  1     1 agreeableness_t1 3.295400
    ##  2     2 agreeableness_t1 3.348223
    ##  3     3 agreeableness_t1 3.171709
    ##  4     4 agreeableness_t1 2.727071
    ##  5     5 agreeableness_t1 2.313266
    ##  6     6 agreeableness_t1 3.620608
    ##  7     7 agreeableness_t1 1.201265
    ##  8     8 agreeableness_t1 2.666801
    ##  9     9 agreeableness_t1 2.467433
    ## 10    10 agreeableness_t1 2.895284
    ## # ... with 1,990 more rows
…
Thankfully, the authors of tidyr anticipated this problem, and created a
useful function called `separate()`, which basically takes data within a
single column, and splits it into multiple columns. Let's add that into
the pipeline on the variable column. We're going to throw a pipe on the
end of gather into separate. This will put the dataset above as the
first argument in the separate function. We then tell it the columns we
want to separate (variable in this case) and provide it the names of the
new columns, which we'll call trait and time, for Big Five trait and
time point.

    sample_b5_data_wide %>%
      gather(variable, score, -pid) %>%
      separate(variable, c("trait", "time"))

    ## # A tibble: 2,000 x 4
    ##      pid         trait  time    score
    ##  * <dbl>         <chr> <chr>    <dbl>
    ##  1     1 agreeableness    t1 3.295400
    ##  2     2 agreeableness    t1 3.348223
    ##  3     3 agreeableness    t1 3.171709
    ##  4     4 agreeableness    t1 2.727071
    ##  5     5 agreeableness    t1 2.313266
    ##  6     6 agreeableness    t1 3.620608
    ##  7     7 agreeableness    t1 1.201265
    ##  8     8 agreeableness    t1 2.666801
    ##  9     9 agreeableness    t1 2.467433
    ## 10    10 agreeableness    t1 2.895284
    ## # ... with 1,990 more rows
…
    # We're going to save this to an object called sample_b5_data_long
    sample_b5_data_long<- sample_b5_data_wide %>%
      gather(variable, score, -pid) %>%
      separate(variable, c("trait", "time"), sep = "_")
    sample_b5_data_long

    ## # A tibble: 2,000 x 4
    ##      pid         trait  time    score
    ##  * <dbl>         <chr> <chr>    <dbl>
    ##  1     1 agreeableness    t1 3.295400
    ##  2     2 agreeableness    t1 3.348223
    ##  3     3 agreeableness    t1 3.171709
    ##  4     4 agreeableness    t1 2.727071
    ##  5     5 agreeableness    t1 2.313266
    ##  6     6 agreeableness    t1 3.620608
    ##  7     7 agreeableness    t1 1.201265
    ##  8     8 agreeableness    t1 2.666801
    ##  9     9 agreeableness    t1 2.467433
    ## 10    10 agreeableness    t1 2.895284
    ## # ... with 1,990 more rows
…
Let's say we're starting with our data in a long format like the one
above, and we wanted to get it to a wide format, like the one we started
with (where each row was a participant, and each column was a trait at a
particular time, like `agreeableness_t1`). We might start with this

    sample_b5_data_long2 <- sample_b5_data_long %>%
      spread(trait, score)

    sample_b5_data_long2 

    ## # A tibble: 400 x 7
    ##      pid  time agreeableness conscientiousness extraversion neuroticism
    ##  * <dbl> <chr>         <dbl>             <dbl>        <dbl>       <dbl>
    ##  1     1    t1      3.295400          2.501786     3.851280    1.538106
    ##  2     1    t2      3.764385          3.010544     4.137145    2.093680
    ##  3     1    t3      4.091583          3.608969     4.791821    2.607097
    ##  4     1    t4      4.629702          4.273238     4.994428    2.858696
    ##  5     2    t1      3.348223          3.214239     3.901119    2.793563
    ##  6     2    t2      4.152176          3.829460     4.021668    3.670314
    ##  7     2    t3      4.594936          4.123784     4.739197    4.150409
    ##  8     2    t4      5.410165          4.785196     5.376520    4.243513
    ##  9     3    t1      3.171709          3.319660     1.947245    2.703627
    ## 10     3    t2      3.649307          3.698359     2.657443    3.066518
    ## # ... with 390 more rows, and 1 more variables: openness <dbl>
…
So, we'll add in a unite before we get to spread, and see if that fixes
it:

    sample_b5_data_long %>%
      unite(variable, trait, time) %>%
      spread(variable, score)

    ## # A tibble: 100 x 21
    ##      pid agreeableness_t1 agreeableness_t2 agreeableness_t3
    ##  * <dbl>            <dbl>            <dbl>            <dbl>
    ##  1     1         3.295400         3.764385         4.091583
    ##  2     2         3.348223         4.152176         4.594936
    ##  3     3         3.171709         3.649307         4.328907
    ##  4     4         2.727071         3.201055         3.607791
    ##  5     5         2.313266         2.812214         3.188017
    ##  6     6         3.620608         3.948514         4.530235
    ##  7     7         1.201265         1.492733         1.823545
    ##  8     8         2.666801         3.032801         3.320180
    ##  9     9         2.467433         2.918958         3.252996
    ## 10    10         2.895284         3.500747         3.582742
    ## # ... with 90 more rows, and 17 more variables: agreeableness_t4 <dbl>,
    ## #   conscientiousness_t1 <dbl>, conscientiousness_t2 <dbl>,
    ## #   conscientiousness_t3 <dbl>, conscientiousness_t4 <dbl>,
    ## #   extraversion_t1 <dbl>, extraversion_t2 <dbl>, extraversion_t3 <dbl>,
    ## #   extraversion_t4 <dbl>, neuroticism_t1 <dbl>, neuroticism_t2 <dbl>,
    ## #   neuroticism_t3 <dbl>, neuroticism_t4 <dbl>, openness_t1 <dbl>,
    ## #   openness_t2 <dbl>, openness_t3 <dbl>, openness_t4 <dbl>

Okay, that got our data into the right format. So, spread isn't *that*
bad, but you typically need to start with data in (just about) the
longest format possible, and to use `unite()` function as well.

But, sometimes our data are in between the longest format possible and
the wide format that we want. Sometimes we get data like we accidentally
got above, where each row is a participant X time point and each column
is trait. Like this:

    sample_b5_data_long2

    ## # A tibble: 400 x 7
    ##      pid  time agreeableness conscientiousness extraversion neuroticism
    ##  * <dbl> <chr>         <dbl>             <dbl>        <dbl>       <dbl>
    ##  1     1    t1      3.295400          2.501786     3.851280    1.538106
    ##  2     1    t2      3.764385          3.010544     4.137145    2.093680
    ##  3     1    t3      4.091583          3.608969     4.791821    2.607097
    ##  4     1    t4      4.629702          4.273238     4.994428    2.858696
    ##  5     2    t1      3.348223          3.214239     3.901119    2.793563
    ##  6     2    t2      4.152176          3.829460     4.021668    3.670314
    ##  7     2    t3      4.594936          4.123784     4.739197    4.150409
    ##  8     2    t4      5.410165          4.785196     5.376520    4.243513
    ##  9     3    t1      3.171709          3.319660     1.947245    2.703627
    ## 10     3    t2      3.649307          3.698359     2.657443    3.066518
    ## # ... with 390 more rows, and 1 more variables: openness <dbl>

What do we do here? Well, if we want to use gather, we'll have to first
lengthen the data, and unite the columns that we need to unite, and then
spread. So it will something like this:

    sample_b5_data_long2 %>%
      # first gather (you'll have to remember to not gather pid AND time)
      gather(trait, score, -pid, -time) %>%
      # Then unite trait and time into a column called variable
      unite(variable, trait, time) %>%
      # then spread it
      spread(variable, score)

    ## # A tibble: 100 x 21
    ##      pid agreeableness_t1 agreeableness_t2 agreeableness_t3
    ##  * <dbl>            <dbl>            <dbl>            <dbl>
    ##  1     1         3.295400         3.764385         4.091583
    ##  2     2         3.348223         4.152176         4.594936
    ##  3     3         3.171709         3.649307         4.328907
    ##  4     4         2.727071         3.201055         3.607791
    ##  5     5         2.313266         2.812214         3.188017
    ##  6     6         3.620608         3.948514         4.530235
    ##  7     7         1.201265         1.492733         1.823545
    ##  8     8         2.666801         3.032801         3.320180
    ##  9     9         2.467433         2.918958         3.252996
    ## 10    10         2.895284         3.500747         3.582742
    ## # ... with 90 more rows, and 17 more variables: agreeableness_t4 <dbl>,
    ## #   conscientiousness_t1 <dbl>, conscientiousness_t2 <dbl>,
    ## #   conscientiousness_t3 <dbl>, conscientiousness_t4 <dbl>,
    ## #   extraversion_t1 <dbl>, extraversion_t2 <dbl>, extraversion_t3 <dbl>,
    ## #   extraversion_t4 <dbl>, neuroticism_t1 <dbl>, neuroticism_t2 <dbl>,
    ## #   neuroticism_t3 <dbl>, neuroticism_t4 <dbl>, openness_t1 <dbl>,
    ## #   openness_t2 <dbl>, openness_t3 <dbl>, openness_t4 <dbl>
…
#### Using reshape(): long to wide

In general, `reshape()` is a little more complicated. It has more
arguments, and more of the arguments are required. But, like I said, it
is sometimes a little easier for widening data than `spread()`. One
thing to keep in mind is, unlike `spread()` and `gather()`, `reshape()`
is used for widening or lengthening data, and you have to specify the
direction in the function.

Let's say our data look like the intermediate data we've used before. I
mean this data shape:

    sample_b5_data_long2

    ## # A tibble: 400 x 7
    ##      pid  time agreeableness conscientiousness extraversion neuroticism
    ##  * <dbl> <chr>         <dbl>             <dbl>        <dbl>       <dbl>
    ##  1     1    t1      3.295400          2.501786     3.851280    1.538106
    ##  2     1    t2      3.764385          3.010544     4.137145    2.093680
    ##  3     1    t3      4.091583          3.608969     4.791821    2.607097
    ##  4     1    t4      4.629702          4.273238     4.994428    2.858696
    ##  5     2    t1      3.348223          3.214239     3.901119    2.793563
    ##  6     2    t2      4.152176          3.829460     4.021668    3.670314
    ##  7     2    t3      4.594936          4.123784     4.739197    4.150409
    ##  8     2    t4      5.410165          4.785196     5.376520    4.243513
    ##  9     3    t1      3.171709          3.319660     1.947245    2.703627
    ## 10     3    t2      3.649307          3.698359     2.657443    3.066518
    ## # ... with 390 more rows, and 1 more variables: openness <dbl>
…
