…
This can be used in indexing, either by explicitly referring to the object within the indexing operator, or by using the `with` function



```r
# Get all the rows in diamonds who are Good or Very Good
# remember the comma at the end, we want to select all columns
df[df$cut=="Good" | df$cut=="Very Good",]
```

```
## # A tibble: 16,988 x 10
##    carat       cut color clarity depth table price     x     y     z
##    <dbl>     <ord> <ord>   <ord> <dbl> <dbl> <int> <dbl> <dbl> <dbl>
##  1  0.23      Good     E     VS1  56.9    65   327  4.05  4.07  2.31
##  2  0.31      Good     J     SI2  63.3    58   335  4.34  4.35  2.75
##  3  0.24 Very Good     J    VVS2  62.8    57   336  3.94  3.96  2.48
##  4  0.24 Very Good     I    VVS1  62.3    57   336  3.95  3.98  2.47
##  5  0.26 Very Good     H     SI1  61.9    55   337  4.07  4.11  2.53
##  6  0.23 Very Good     H     VS1  59.4    61   338  4.00  4.05  2.39
##  7  0.30      Good     J     SI1  64.0    55   339  4.25  4.28  2.73
##  8  0.30      Good     J     SI1  63.4    54   351  4.23  4.29  2.70
##  9  0.30      Good     J     SI1  63.8    56   351  4.23  4.26  2.71
## 10  0.30 Very Good     J     SI1  62.7    59   351  4.21  4.27  2.66
## # ... with 16,978 more rows
```

```r
# you can combine boolean vectors arbitrarily

df[df$cut=="Good" & df$carat>1,]
```

```
## # A tibble: 1,579 x 10
##    carat   cut color clarity depth table price     x     y     z
##    <dbl> <ord> <ord>   <ord> <dbl> <dbl> <int> <dbl> <dbl> <dbl>
##  1  1.01  Good     I      I1  63.1    57  2844  6.35  6.39  4.02
##  2  1.01  Good     H      I1  64.2    61  2846  6.25  6.18  3.99
##  3  1.03  Good     J     SI1  63.6    57  2855  6.38  6.29  4.03
##  4  1.04  Good     I     SI2  59.9    64  2970  6.51  6.45  3.88
##  5  1.01  Good     E      I1  63.8    57  3032  6.40  6.33  4.06
##  6  1.02  Good     E      I1  63.1    60  3051  6.31  6.40  4.01
##  7  1.01  Good     J     SI2  63.7    60  3088  6.40  6.29  4.05
##  8  1.29  Good     I      I1  64.2    54  3098  6.93  6.83  4.42
##  9  1.52  Good     E      I1  57.3    58  3105  7.53  7.42  4.28
## 10  1.52  Good     E      I1  57.3    58  3105  7.53  7.42  4.28
## # ... with 1,569 more rows
```
…
```
## Conflicts with tidy packages ----------------------------------------------
```

```
## filter(): dplyr, stats
## lag():    dplyr, stats
```

```
## # A tibble: 100 x 21
##      pid agreeableness_t1 conscientiousness_t1 neuroticism_t1
##    <dbl>            <dbl>                <dbl>          <dbl>
##  1     1         2.561910             2.226287       1.482124
##  2     2         3.764061             3.424002       2.976117
##  3     3         3.261961             2.416053       3.026659
##  4     4         3.773405             3.415036       3.163681
##  5     5         2.185621             1.454738       3.410008
##  6     6         2.561549             2.481250       2.372637
##  7     7         2.279778             2.720208       3.636918
##  8     8         3.230945             4.007457       1.798065
##  9     9         1.842271             2.530430       4.346542
## 10    10         3.247076             3.297897       2.401233
## # ... with 90 more rows, and 17 more variables: extraversion_t1 <dbl>,
## #   openness_t1 <dbl>, agreeableness_t2 <dbl>, conscientiousness_t2 <dbl>,
## #   neuroticism_t2 <dbl>, extraversion_t2 <dbl>, openness_t2 <dbl>,
## #   agreeableness_t3 <dbl>, conscientiousness_t3 <dbl>,
## #   neuroticism_t3 <dbl>, extraversion_t3 <dbl>, openness_t3 <dbl>,
## #   agreeableness_t4 <dbl>, conscientiousness_t4 <dbl>,
## #   neuroticism_t4 <dbl>, extraversion_t4 <dbl>, openness_t4 <dbl>
```
…
This data is in a *wide* format. It's also in basically the widest format it could be in for any reasonable purpose; the only way to make it wider would be to have a single row, and a column for each participant X Big 5 score X time point.

What would make this data *long*? There are two dimensions that we could lengthen the data on, but the more common one you might see is time. That is, we'd have a row for each participant X time point combination, like the following:


So we now have a row for each participant at each time point, and a column for each of the Big 5. We could also make it a little longer, by making each row correspond to a score on each Big Five trait for each participant at each time point, like so:


```r
sample_b5_data_long %>%
  gather(trait, score, agreeableness:openness)
```

```
## # A tibble: 2,000 x 4
##      pid  time         trait    score
##    <dbl> <chr>         <chr>    <dbl>
##  1     1    t1 agreeableness 2.561910
##  2     1    t2 agreeableness 3.129489
##  3     1    t3 agreeableness 3.637314
##  4     1    t4 agreeableness 4.207066
##  5     2    t1 agreeableness 3.764061
##  6     2    t2 agreeableness 4.377288
##  7     2    t3 agreeableness 4.889805
##  8     2    t4 agreeableness 5.487121
##  9     3    t1 agreeableness 3.261961
## 10     3    t2 agreeableness 3.575117
## # ... with 1,990 more rows
```


### Wide to Long
We'll start with lengthening our data. We currently have our data in a wide format that looks something like this for now:

```r
sample_b5_data_wide
```

```
## # A tibble: 100 x 21
##      pid agreeableness_t1 conscientiousness_t1 neuroticism_t1
##    <dbl>            <dbl>                <dbl>          <dbl>
##  1     1         2.561910             2.226287       1.482124
##  2     2         3.764061             3.424002       2.976117
##  3     3         3.261961             2.416053       3.026659
##  4     4         3.773405             3.415036       3.163681
##  5     5         2.185621             1.454738       3.410008
##  6     6         2.561549             2.481250       2.372637
##  7     7         2.279778             2.720208       3.636918
##  8     8         3.230945             4.007457       1.798065
##  9     9         1.842271             2.530430       4.346542
## 10    10         3.247076             3.297897       2.401233
## # ... with 90 more rows, and 17 more variables: extraversion_t1 <dbl>,
## #   openness_t1 <dbl>, agreeableness_t2 <dbl>, conscientiousness_t2 <dbl>,
## #   neuroticism_t2 <dbl>, extraversion_t2 <dbl>, openness_t2 <dbl>,
## #   agreeableness_t3 <dbl>, conscientiousness_t3 <dbl>,
## #   neuroticism_t3 <dbl>, extraversion_t3 <dbl>, openness_t3 <dbl>,
## #   agreeableness_t4 <dbl>, conscientiousness_t4 <dbl>,
## #   neuroticism_t4 <dbl>, extraversion_t4 <dbl>, openness_t4 <dbl>
```
And say we want it to lengthen it to look like this:

```
## # A tibble: 400 x 7
##      pid  time agreeableness conscientiousness extraversion neuroticism
##  * <dbl> <chr>         <dbl>             <dbl>        <dbl>       <dbl>
##  1     1    t1      2.561910          2.226287     1.777716    1.482124
##  2     1    t2      3.129489          3.054222     2.330667    2.459631
##  3     1    t3      3.637314          3.350964     2.672625    3.374978
##  4     1    t4      4.207066          3.790548     3.487093    3.517931
##  5     2    t1      3.764061          3.424002     3.891194    2.976117
##  6     2    t2      4.377288          3.888895     4.719864    3.623774
##  7     2    t3      4.889805          4.092564     4.958199    4.163255
##  8     2    t4      5.487121          4.545136     5.434412    4.552172
##  9     3    t1      3.261961          2.416053     3.253923    3.026659
## 10     3    t2      3.575117          2.843559     3.951325    3.346487
## # ... with 390 more rows, and 1 more variables: openness <dbl>
```
…
And that's all that is required.

The most important remaining part of this syntax is the columns that you want to *gather*, or the variables that you want to become key-value pairs. Another way to put this is which columns do you want to become rows (lengthening the data)? 

If you don't name any columns, it will select all of them. The syntax for this part works similarly to `select()`. You can name a series of variables, like `agreeableness_t1:openness_t4` , or name each column individually separated by a comma `agreeabeleness_t1, conscientiousness, ..., openness_t4`, or you can say which columns you *do not* want with a minus sign in front of the column name. Since we want to include all of our columns except participant id (`pid`), we'll use the minus sign to tell `gather()` include everything but `pid` 

```r
sample_b5_data_wide %>%
  gather(variable, score, -pid)
```

```
## # A tibble: 2,000 x 3
##      pid         variable    score
##    <dbl>            <chr>    <dbl>
##  1     1 agreeableness_t1 2.561910
##  2     2 agreeableness_t1 3.764061
##  3     3 agreeableness_t1 3.261961
##  4     4 agreeableness_t1 3.773405
##  5     5 agreeableness_t1 2.185621
##  6     6 agreeableness_t1 2.561549
##  7     7 agreeableness_t1 2.279778
##  8     8 agreeableness_t1 3.230945
##  9     9 agreeableness_t1 1.842271
## 10    10 agreeableness_t1 3.247076
## # ... with 1,990 more rows
```

Okay, so this brings us to our first issue when trying to lengthen a dataset. The key column (what we called variable) contains the trait that was measured and the time point. That is, this column contains 2 pieces of information that we probably want kept separately. We want these to be in separate columns, so that we can select certain traits or time points, or model slopes across time points.

Thankfully, the authors of tidyr anticipated this problem, and created a useful function called `separate()`, which basically takes data within a single column, and splits it into multiple columns. Let's add that into the pipeline on the variable column. We're going to throw a pipe on the end of gather into separate. This will put the dataset above as the first argument in the separate function. We then tell it the columns we want to separate (variable in this case) and provide it the names of the new columns, which we'll call trait and time, for Big Five trait and time point.

```r
sample_b5_data_wide %>%
  gather(variable, score, -pid) %>%
  separate(variable, c("trait", "time"))
```

```
## # A tibble: 2,000 x 4
##      pid         trait  time    score
##  * <dbl>         <chr> <chr>    <dbl>
##  1     1 agreeableness    t1 2.561910
##  2     2 agreeableness    t1 3.764061
##  3     3 agreeableness    t1 3.261961
##  4     4 agreeableness    t1 3.773405
##  5     5 agreeableness    t1 2.185621
##  6     6 agreeableness    t1 2.561549
##  7     7 agreeableness    t1 2.279778
##  8     8 agreeableness    t1 3.230945
##  9     9 agreeableness    t1 1.842271
## 10    10 agreeableness    t1 3.247076
## # ... with 1,990 more rows
```
You'll notice we didn't tell separate anything other than the column we wanted separated (`variable`) and the name of two new columns (`trait` and `time`). How did it know how to separate that column?

Well, basically, separate looks for something called *regular expressions*. We'll get into more detail about regular expressions later on, but one regular expression is the underscore for separating things. So it recognized that every string in the variable column contained a underscore. Then, it put the character string on the left hand side of the underscore into the first column name we gave it (trait) and put the character string on the right hand side of the underscore into the second column name we gave it (time). If we wanted to be more explicit, we could specify the `sep=` argument like so:


```r
# We're going to save this to an object called sample_b5_data_long
sample_b5_data_long<- sample_b5_data_wide %>%
  gather(variable, score, -pid) %>%
  separate(variable, c("trait", "time"), sep = "_")
sample_b5_data_long
```

```
## # A tibble: 2,000 x 4
##      pid         trait  time    score
##  * <dbl>         <chr> <chr>    <dbl>
##  1     1 agreeableness    t1 2.561910
##  2     2 agreeableness    t1 3.764061
##  3     3 agreeableness    t1 3.261961
##  4     4 agreeableness    t1 3.773405
##  5     5 agreeableness    t1 2.185621
##  6     6 agreeableness    t1 2.561549
##  7     7 agreeableness    t1 2.279778
##  8     8 agreeableness    t1 3.230945
##  9     9 agreeableness    t1 1.842271
## 10    10 agreeableness    t1 3.247076
## # ... with 1,990 more rows
```
…
Let's say we're starting with our data in a long format like the one above, and we wanted to get it to a wide format, like the one we started with (where each row was a participant, and each column was a trait at a particular time, like `agreeableness_t1`). We might start with this

```r
sample_b5_data_long2 <- sample_b5_data_long %>%
  spread(trait, score)

sample_b5_data_long2 
```

```
## # A tibble: 400 x 7
##      pid  time agreeableness conscientiousness extraversion neuroticism
##  * <dbl> <chr>         <dbl>             <dbl>        <dbl>       <dbl>
##  1     1    t1      2.561910          2.226287     1.777716    1.482124
##  2     1    t2      3.129489          3.054222     2.330667    2.459631
##  3     1    t3      3.637314          3.350964     2.672625    3.374978
##  4     1    t4      4.207066          3.790548     3.487093    3.517931
##  5     2    t1      3.764061          3.424002     3.891194    2.976117
##  6     2    t2      4.377288          3.888895     4.719864    3.623774
##  7     2    t3      4.889805          4.092564     4.958199    4.163255
##  8     2    t4      5.487121          4.545136     5.434412    4.552172
##  9     3    t1      3.261961          2.416053     3.253923    3.026659
## 10     3    t2      3.575117          2.843559     3.951325    3.346487
## # ... with 390 more rows, and 1 more variables: openness <dbl>
```
…
We can't do that; we can only give exactly **one** column for the value argument in spread. Herein lies my frustration with spread. Now there is a workaround. 

If you're data is in the longer format from above (where each row was a participant X trait X time combo), then you can first use `unite()` (the complement to separate). `unite()` requires an argument for data and the column name you want it to add (once it unites the columns you tell it to unite). You'll probably also want to name specific columns, which can be done just like other tidyr functions, by listing their unquoted names (or if you have a range of columns, you can use column_name_at_start_of_range:column_name_at_end_of_range). 

So, we'll add in a unite before we get to spread, and see if that fixes it:


```r
sample_b5_data_long %>%
  unite(variable, trait, time) %>%
  spread(variable, score)
```

```
## # A tibble: 100 x 21
##      pid agreeableness_t1 agreeableness_t2 agreeableness_t3
##  * <dbl>            <dbl>            <dbl>            <dbl>
##  1     1         2.561910         3.129489         3.637314
##  2     2         3.764061         4.377288         4.889805
##  3     3         3.261961         3.575117         4.186379
##  4     4         3.773405         4.618759         5.095310
##  5     5         2.185621         3.003284         3.388888
##  6     6         2.561549         2.854060         3.408756
##  7     7         2.279778         2.853680         3.186240
##  8     8         3.230945         3.818676         4.285996
##  9     9         1.842271         2.166671         2.772455
## 10    10         3.247076         3.899260         4.298564
## # ... with 90 more rows, and 17 more variables: agreeableness_t4 <dbl>,
## #   conscientiousness_t1 <dbl>, conscientiousness_t2 <dbl>,
## #   conscientiousness_t3 <dbl>, conscientiousness_t4 <dbl>,
## #   extraversion_t1 <dbl>, extraversion_t2 <dbl>, extraversion_t3 <dbl>,
## #   extraversion_t4 <dbl>, neuroticism_t1 <dbl>, neuroticism_t2 <dbl>,
## #   neuroticism_t3 <dbl>, neuroticism_t4 <dbl>, openness_t1 <dbl>,
## #   openness_t2 <dbl>, openness_t3 <dbl>, openness_t4 <dbl>
```
Okay, that got our data into the right format. So, spread isn't *that* bad, but you typically need to start with data in (just about) the longest format possible, and to use `unite()` function as well.

But, sometimes our data are in between the longest format possible and the wide format that we want. Sometimes we get data like we accidentally got above, where each row is a participant X time point and each column is trait. Like this:


```r
sample_b5_data_long2
```

```
## # A tibble: 400 x 7
##      pid  time agreeableness conscientiousness extraversion neuroticism
##  * <dbl> <chr>         <dbl>             <dbl>        <dbl>       <dbl>
##  1     1    t1      2.561910          2.226287     1.777716    1.482124
##  2     1    t2      3.129489          3.054222     2.330667    2.459631
##  3     1    t3      3.637314          3.350964     2.672625    3.374978
##  4     1    t4      4.207066          3.790548     3.487093    3.517931
##  5     2    t1      3.764061          3.424002     3.891194    2.976117
##  6     2    t2      4.377288          3.888895     4.719864    3.623774
##  7     2    t3      4.889805          4.092564     4.958199    4.163255
##  8     2    t4      5.487121          4.545136     5.434412    4.552172
##  9     3    t1      3.261961          2.416053     3.253923    3.026659
## 10     3    t2      3.575117          2.843559     3.951325    3.346487
## # ... with 390 more rows, and 1 more variables: openness <dbl>
```
What do we do here? Well, if we want to use gather, we'll have to first lengthen the data, and unite the columns that we need to unite, and then spread. So it will something like this:


```r
sample_b5_data_long2 %>%
  # first gather (you'll have to remember to not gather pid AND time)
  gather(trait, score, -pid, -time) %>%
  # Then unite trait and time into a column called variable
  unite(variable, trait, time) %>%
  # then spread it
  spread(variable, score)
```

```
## # A tibble: 100 x 21
##      pid agreeableness_t1 agreeableness_t2 agreeableness_t3
##  * <dbl>            <dbl>            <dbl>            <dbl>
##  1     1         2.561910         3.129489         3.637314
##  2     2         3.764061         4.377288         4.889805
##  3     3         3.261961         3.575117         4.186379
##  4     4         3.773405         4.618759         5.095310
##  5     5         2.185621         3.003284         3.388888
##  6     6         2.561549         2.854060         3.408756
##  7     7         2.279778         2.853680         3.186240
##  8     8         3.230945         3.818676         4.285996
##  9     9         1.842271         2.166671         2.772455
## 10    10         3.247076         3.899260         4.298564
## # ... with 90 more rows, and 17 more variables: agreeableness_t4 <dbl>,
## #   conscientiousness_t1 <dbl>, conscientiousness_t2 <dbl>,
## #   conscientiousness_t3 <dbl>, conscientiousness_t4 <dbl>,
## #   extraversion_t1 <dbl>, extraversion_t2 <dbl>, extraversion_t3 <dbl>,
## #   extraversion_t4 <dbl>, neuroticism_t1 <dbl>, neuroticism_t2 <dbl>,
## #   neuroticism_t3 <dbl>, neuroticism_t4 <dbl>, openness_t1 <dbl>,
## #   openness_t2 <dbl>, openness_t3 <dbl>, openness_t4 <dbl>
```
…
