R Guide Index
…
# double &&s will only compare the first element - use it when you are trying to evaluate whether a single thing is true or false, eg. is this value greater than one? are my vectors the same length?
(max(x) > 20) && (min(x) <= 5)

## [1] TRUE

This can be used in indexing, either by explicitly referring to the object within the indexing operator, or by using the with function

# Get all the rows in diamonds who are Good or Very Good
# remember the comma at the end, we want to select all columns
df[df$cut=="Good" | df$cut=="Very Good",]

## # A tibble: 16,988 x 10
##    carat       cut color clarity depth table price     x     y     z
##    <dbl>     <ord> <ord>   <ord> <dbl> <dbl> <int> <dbl> <dbl> <dbl>
##  1  0.23      Good     E     VS1  56.9    65   327  4.05  4.07  2.31
##  2  0.31      Good     J     SI2  63.3    58   335  4.34  4.35  2.75
##  3  0.24 Very Good     J    VVS2  62.8    57   336  3.94  3.96  2.48
##  4  0.24 Very Good     I    VVS1  62.3    57   336  3.95  3.98  2.47
##  5  0.26 Very Good     H     SI1  61.9    55   337  4.07  4.11  2.53
##  6  0.23 Very Good     H     VS1  59.4    61   338  4.00  4.05  2.39
##  7  0.30      Good     J     SI1  64.0    55   339  4.25  4.28  2.73
##  8  0.30      Good     J     SI1  63.4    54   351  4.23  4.29  2.70
##  9  0.30      Good     J     SI1  63.8    56   351  4.23  4.26  2.71
## 10  0.30 Very Good     J     SI1  62.7    59   351  4.21  4.27  2.66
## # ... with 16,978 more rows

# you can combine boolean vectors arbitrarily

df[df$cut=="Good" & df$carat>1,]

## # A tibble: 1,579 x 10
##    carat   cut color clarity depth table price     x     y     z
##    <dbl> <ord> <ord>   <ord> <dbl> <dbl> <int> <dbl> <dbl> <dbl>
##  1  1.01  Good     I      I1  63.1    57  2844  6.35  6.39  4.02
##  2  1.01  Good     H      I1  64.2    61  2846  6.25  6.18  3.99
##  3  1.03  Good     J     SI1  63.6    57  2855  6.38  6.29  4.03
##  4  1.04  Good     I     SI2  59.9    64  2970  6.51  6.45  3.88
##  5  1.01  Good     E      I1  63.8    57  3032  6.40  6.33  4.06
##  6  1.02  Good     E      I1  63.1    60  3051  6.31  6.40  4.01
##  7  1.01  Good     J     SI2  63.7    60  3088  6.40  6.29  4.05
##  8  1.29  Good     I      I1  64.2    54  3098  6.93  6.83  4.42
##  9  1.52  Good     E      I1  57.3    58  3105  7.53  7.42  4.28
## 10  1.52  Good     E      I1  57.3    58  3105  7.53  7.42  4.28
## # ... with 1,569 more rows
…
