R Guide Index
…
One common design that leads to data easily represented as wide or long is longitudinal data. Let’s say we administer the Big Five Inventory - 2 (BFI-2; Soto & John, 2016) to a sample of incoming freshman annually for 4 years. To keep things simple, let’s say we only have that data (nothing else was administered). In this case, you may have a dataset that looks like this:

## Loading tidyverse: ggplot2
## Loading tidyverse: tibble
## Loading tidyverse: tidyr
## Loading tidyverse: readr
## Loading tidyverse: purrr

## Conflicts with tidy packages ----------------------------------------------

## filter(): dplyr, stats
## lag():    dplyr, stats

## # A tibble: 100 x 21
##      pid agreeableness_t1 conscientiousness_t1 neuroticism_t1
##    <dbl>            <dbl>                <dbl>          <dbl>
##  1     1         2.440257             4.540655       1.959233
##  2     2         2.412030             2.908148       2.231855
##  3     3         2.830686             3.896701       4.010424
##  4     4         5.767905             2.180680       2.208962
##  5     5         3.197443             3.612782       4.457193
##  6     6         5.038328             3.094981       3.444035
##  7     7         1.501038             3.445639       3.499687
##  8     8         3.664378             2.876772       5.126053
##  9     9         2.270216             3.395898       2.676413
## 10    10         2.594947             2.815376       2.223118
## # ... with 90 more rows, and 17 more variables: extraversion_t1 <dbl>,
## #   openness_t1 <dbl>, agreeableness_t2 <dbl>, conscientiousness_t2 <dbl>,
## #   neuroticism_t2 <dbl>, extraversion_t2 <dbl>, openness_t2 <dbl>,
## #   agreeableness_t3 <dbl>, conscientiousness_t3 <dbl>,
## #   neuroticism_t3 <dbl>, extraversion_t3 <dbl>, openness_t3 <dbl>,
## #   agreeableness_t4 <dbl>, conscientiousness_t4 <dbl>,
## #   neuroticism_t4 <dbl>, extraversion_t4 <dbl>, openness_t4 <dbl>
…
As you can see in the above, we have a row for each participant, and a column corresponding to each Big 5 score at each time point. For example, column 2 contains each participant’s score on Agreeableness at time 1, column 7 contains each participant’s score on Agreeableness at time 2, etc.

This data is in a wide format. It’s also in basically the widest format it could be in for any reasonable purpose; the only way to make it wider would be to have a single row, and a column for each participant X Big 5 score X time point.

What would make this data long? There are two dimensions that we could lengthen the data on, but the more common one you might see is time. That is, we’d have a row for each participant X time point combination, like the following:

So we now have a row for each participant at each time point, and a column for each of the Big 5. We could also make it a little longer, by making each row correspond to a score on each Big Five trait for each participant at each time point, like so:

sample_b5_data_long %>%
  gather(trait, score, agreeableness:openness)

## # A tibble: 2,000 x 4
##      pid  time         trait    score
##    <dbl> <chr>         <chr>    <dbl>
##  1     1    t1 agreeableness 2.440257
##  2     1    t2 agreeableness 2.954696
##  3     1    t3 agreeableness 3.422144
##  4     1    t4 agreeableness 4.008029
##  5     2    t1 agreeableness 2.412030
##  6     2    t2 agreeableness 2.971969
##  7     2    t3 agreeableness 3.415010
##  8     2    t4 agreeableness 3.736804
##  9     3    t1 agreeableness 2.830686
## 10     3    t2 agreeableness 3.256730
## # ... with 1,990 more rows
…
age25plus_abcd <- data %>%
  filter(age > 25) %>%
  select(a, b, c, d)

15.3 Reshaping Data

At the start of the data manipulation section, we talked about long vs wide data. Now let’s talk about how to actually lengthen or widen or data. We’ll use the same dataset we made up for the starting example: 4 year longitudinal study where the Big Five were measured annually.

15.3.1 Wide to Long

We’ll start with lengthening our data. We currently have our data in a wide format that looks something like this for now:

sample_b5_data_wide

## # A tibble: 100 x 21
##      pid agreeableness_t1 conscientiousness_t1 neuroticism_t1
##    <dbl>            <dbl>                <dbl>          <dbl>
##  1     1         2.440257             4.540655       1.959233
##  2     2         2.412030             2.908148       2.231855
##  3     3         2.830686             3.896701       4.010424
##  4     4         5.767905             2.180680       2.208962
##  5     5         3.197443             3.612782       4.457193
##  6     6         5.038328             3.094981       3.444035
##  7     7         1.501038             3.445639       3.499687
##  8     8         3.664378             2.876772       5.126053
##  9     9         2.270216             3.395898       2.676413
## 10    10         2.594947             2.815376       2.223118
## # ... with 90 more rows, and 17 more variables: extraversion_t1 <dbl>,
## #   openness_t1 <dbl>, agreeableness_t2 <dbl>, conscientiousness_t2 <dbl>,
## #   neuroticism_t2 <dbl>, extraversion_t2 <dbl>, openness_t2 <dbl>,
## #   agreeableness_t3 <dbl>, conscientiousness_t3 <dbl>,
## #   neuroticism_t3 <dbl>, extraversion_t3 <dbl>, openness_t3 <dbl>,
## #   agreeableness_t4 <dbl>, conscientiousness_t4 <dbl>,
## #   neuroticism_t4 <dbl>, extraversion_t4 <dbl>, openness_t4 <dbl>

And say we want it to lengthen it to look like this:

## # A tibble: 400 x 7
##      pid  time agreeableness conscientiousness extraversion neuroticism
##  * <dbl> <chr>         <dbl>             <dbl>        <dbl>       <dbl>
##  1     1    t1      2.440257          4.540655     4.583366    1.959233
##  2     1    t2      2.954696          4.998175     5.039662    2.327997
##  3     1    t3      3.422144          5.433964     5.590352    2.739649
##  4     1    t4      4.008029          6.029997     6.127099    3.245819
##  5     2    t1      2.412030          2.908148     3.358208    2.231855
##  6     2    t2      2.971969          3.245699     4.042082    2.573951
##  7     2    t3      3.415010          3.797699     4.277225    3.727821
##  8     2    t4      3.736804          4.330912     4.836052    4.346881
##  9     3    t1      2.830686          3.896701     2.740682    4.010424
## 10     3    t2      3.256730          4.532590     3.178003    4.180825
## # ... with 390 more rows, and 1 more variables: openness <dbl>
…
value

this is the name of the new variable (or new column) that will contain the scores that used to be spread out across different columns.

And that’s all that is required.

The most important remaining part of this syntax is the columns that you want to gather, or the variables that you want to become key-value pairs. Another way to put this is which columns do you want to become rows (lengthening the data)?

If you don’t name any columns, it will select all of them. The syntax for this part works similarly to select(). You can name a series of variables, like agreeableness_t1:openness_t4 , or name each column individually separated by a comma agreeabeleness_t1, conscientiousness, ..., openness_t4, or you can say which columns you do not want with a minus sign in front of the column name. Since we want to include all of our columns except participant id (pid), we’ll use the minus sign to tell gather() include everything but pid

sample_b5_data_wide %>%
  gather(variable, score, -pid)

## # A tibble: 2,000 x 3
##      pid         variable    score
##    <dbl>            <chr>    <dbl>
##  1     1 agreeableness_t1 2.440257
##  2     2 agreeableness_t1 2.412030
##  3     3 agreeableness_t1 2.830686
##  4     4 agreeableness_t1 5.767905
##  5     5 agreeableness_t1 3.197443
##  6     6 agreeableness_t1 5.038328
##  7     7 agreeableness_t1 1.501038
##  8     8 agreeableness_t1 3.664378
##  9     9 agreeableness_t1 2.270216
## 10    10 agreeableness_t1 2.594947
## # ... with 1,990 more rows

Okay, so this brings us to our first issue when trying to lengthen a dataset. The key column (what we called variable) contains the trait that was measured and the time point. That is, this column contains 2 pieces of information that we probably want kept separately. We want these to be in separate columns, so that we can select certain traits or time points, or model slopes across time points.

Thankfully, the authors of tidyr anticipated this problem, and created a useful function called separate(), which basically takes data within a single column, and splits it into multiple columns. Let’s add that into the pipeline on the variable column. We’re going to throw a pipe on the end of gather into separate. This will put the dataset above as the first argument in the separate function. We then tell it the columns we want to separate (variable in this case) and provide it the names of the new columns, which we’ll call trait and time, for Big Five trait and time point.

sample_b5_data_wide %>%
  gather(variable, score, -pid) %>%
  separate(variable, c("trait", "time"))

## # A tibble: 2,000 x 4
##      pid         trait  time    score
##  * <dbl>         <chr> <chr>    <dbl>
##  1     1 agreeableness    t1 2.440257
##  2     2 agreeableness    t1 2.412030
##  3     3 agreeableness    t1 2.830686
##  4     4 agreeableness    t1 5.767905
##  5     5 agreeableness    t1 3.197443
##  6     6 agreeableness    t1 5.038328
##  7     7 agreeableness    t1 1.501038
##  8     8 agreeableness    t1 3.664378
##  9     9 agreeableness    t1 2.270216
## 10    10 agreeableness    t1 2.594947
## # ... with 1,990 more rows

You’ll notice we didn’t tell separate anything other than the column we wanted separated (variable) and the name of two new columns (trait and time). How did it know how to separate that column?

Well, basically, separate looks for something called regular expressions. We’ll get into more detail about regular expressions later on, but one regular expression is the underscore for separating things. So it recognized that every string in the variable column contained a underscore. Then, it put the character string on the left hand side of the underscore into the first column name we gave it (trait) and put the character string on the right hand side of the underscore into the second column name we gave it (time). If we wanted to be more explicit, we could specify the sep= argument like so:

# We're going to save this to an object called sample_b5_data_long
sample_b5_data_long<- sample_b5_data_wide %>%
  gather(variable, score, -pid) %>%
  separate(variable, c("trait", "time"), sep = "_")
sample_b5_data_long

## # A tibble: 2,000 x 4
##      pid         trait  time    score
##  * <dbl>         <chr> <chr>    <dbl>
##  1     1 agreeableness    t1 2.440257
##  2     2 agreeableness    t1 2.412030
##  3     3 agreeableness    t1 2.830686
##  4     4 agreeableness    t1 5.767905
##  5     5 agreeableness    t1 3.197443
##  6     6 agreeableness    t1 5.038328
##  7     7 agreeableness    t1 1.501038
##  8     8 agreeableness    t1 3.664378
##  9     9 agreeableness    t1 2.270216
## 10    10 agreeableness    t1 2.594947
## # ... with 1,990 more rows
…
The column that contains the values that you want to be columns. This would be either the variable or time column from our above example dataset.

value

The column that contains the values you want to fill the cells beneath the new columns with. This would be the score column from above.

Let’s say we’re starting with our data in a long format like the one above, and we wanted to get it to a wide format, like the one we started with (where each row was a participant, and each column was a trait at a particular time, like agreeableness_t1). We might start with this

sample_b5_data_long2 <- sample_b5_data_long %>%
  spread(trait, score)

sample_b5_data_long2 

## # A tibble: 400 x 7
##      pid  time agreeableness conscientiousness extraversion neuroticism
##  * <dbl> <chr>         <dbl>             <dbl>        <dbl>       <dbl>
##  1     1    t1      2.440257          4.540655     4.583366    1.959233
##  2     1    t2      2.954696          4.998175     5.039662    2.327997
##  3     1    t3      3.422144          5.433964     5.590352    2.739649
##  4     1    t4      4.008029          6.029997     6.127099    3.245819
##  5     2    t1      2.412030          2.908148     3.358208    2.231855
##  6     2    t2      2.971969          3.245699     4.042082    2.573951
##  7     2    t3      3.415010          3.797699     4.277225    3.727821
##  8     2    t4      3.736804          4.330912     4.836052    4.346881
##  9     3    t1      2.830686          3.896701     2.740682    4.010424
## 10     3    t2      3.256730          4.532590     3.178003    4.180825
## # ... with 390 more rows, and 1 more variables: openness <dbl>
…
sample_b5_data_long %>%
  spread(time, score) %>%
  spread(trait, agreeableness:openness) # note that if you pass it a vector of names like c("agreeableness", etc.) it also won't work

We can’t do that; we can only give exactly one column for the value argument in spread. Herein lies my frustration with spread. Now there is a workaround.

If you’re data is in the longer format from above (where each row was a participant X trait X time combo), then you can first use unite() (the complement to separate). unite() requires an argument for data and the column name you want it to add (once it unites the columns you tell it to unite). You’ll probably also want to name specific columns, which can be done just like other tidyr functions, by listing their unquoted names (or if you have a range of columns, you can use column_name_at_start_of_range:column_name_at_end_of_range).

So, we’ll add in a unite before we get to spread, and see if that fixes it:

sample_b5_data_long %>%
  unite(variable, trait, time) %>%
  spread(variable, score)

## # A tibble: 100 x 21
##      pid agreeableness_t1 agreeableness_t2 agreeableness_t3
##  * <dbl>            <dbl>            <dbl>            <dbl>
##  1     1         2.440257         2.954696         3.422144
##  2     2         2.412030         2.971969         3.415010
##  3     3         2.830686         3.256730         3.915557
##  4     4         5.767905         6.215997         6.904326
##  5     5         3.197443         3.926931         4.455726
##  6     6         5.038328         5.467414         5.884595
##  7     7         1.501038         1.886098         2.564915
##  8     8         3.664378         4.063416         4.268474
##  9     9         2.270216         2.775803         3.602384
## 10    10         2.594947         3.540182         3.758939
## # ... with 90 more rows, and 17 more variables: agreeableness_t4 <dbl>,
## #   conscientiousness_t1 <dbl>, conscientiousness_t2 <dbl>,
## #   conscientiousness_t3 <dbl>, conscientiousness_t4 <dbl>,
## #   extraversion_t1 <dbl>, extraversion_t2 <dbl>, extraversion_t3 <dbl>,
## #   extraversion_t4 <dbl>, neuroticism_t1 <dbl>, neuroticism_t2 <dbl>,
## #   neuroticism_t3 <dbl>, neuroticism_t4 <dbl>, openness_t1 <dbl>,
## #   openness_t2 <dbl>, openness_t3 <dbl>, openness_t4 <dbl>

Okay, that got our data into the right format. So, spread isn’t that bad, but you typically need to start with data in (just about) the longest format possible, and to use unite() function as well.

But, sometimes our data are in between the longest format possible and the wide format that we want. Sometimes we get data like we accidentally got above, where each row is a participant X time point and each column is trait. Like this:

sample_b5_data_long2

## # A tibble: 400 x 7
##      pid  time agreeableness conscientiousness extraversion neuroticism
##  * <dbl> <chr>         <dbl>             <dbl>        <dbl>       <dbl>
##  1     1    t1      2.440257          4.540655     4.583366    1.959233
##  2     1    t2      2.954696          4.998175     5.039662    2.327997
##  3     1    t3      3.422144          5.433964     5.590352    2.739649
##  4     1    t4      4.008029          6.029997     6.127099    3.245819
##  5     2    t1      2.412030          2.908148     3.358208    2.231855
##  6     2    t2      2.971969          3.245699     4.042082    2.573951
##  7     2    t3      3.415010          3.797699     4.277225    3.727821
##  8     2    t4      3.736804          4.330912     4.836052    4.346881
##  9     3    t1      2.830686          3.896701     2.740682    4.010424
## 10     3    t2      3.256730          4.532590     3.178003    4.180825
## # ... with 390 more rows, and 1 more variables: openness <dbl>

What do we do here? Well, if we want to use gather, we’ll have to first lengthen the data, and unite the columns that we need to unite, and then spread. So it will something like this:

sample_b5_data_long2 %>%
  # first gather (you'll have to remember to not gather pid AND time)
  gather(trait, score, -pid, -time) %>%
  # Then unite trait and time into a column called variable
  unite(variable, trait, time) %>%
  # then spread it
  spread(variable, score)

## # A tibble: 100 x 21
##      pid agreeableness_t1 agreeableness_t2 agreeableness_t3
##  * <dbl>            <dbl>            <dbl>            <dbl>
##  1     1         2.440257         2.954696         3.422144
##  2     2         2.412030         2.971969         3.415010
##  3     3         2.830686         3.256730         3.915557
##  4     4         5.767905         6.215997         6.904326
##  5     5         3.197443         3.926931         4.455726
##  6     6         5.038328         5.467414         5.884595
##  7     7         1.501038         1.886098         2.564915
##  8     8         3.664378         4.063416         4.268474
##  9     9         2.270216         2.775803         3.602384
## 10    10         2.594947         3.540182         3.758939
## # ... with 90 more rows, and 17 more variables: agreeableness_t4 <dbl>,
## #   conscientiousness_t1 <dbl>, conscientiousness_t2 <dbl>,
## #   conscientiousness_t3 <dbl>, conscientiousness_t4 <dbl>,
## #   extraversion_t1 <dbl>, extraversion_t2 <dbl>, extraversion_t3 <dbl>,
## #   extraversion_t4 <dbl>, neuroticism_t1 <dbl>, neuroticism_t2 <dbl>,
## #   neuroticism_t3 <dbl>, neuroticism_t4 <dbl>, openness_t1 <dbl>,
## #   openness_t2 <dbl>, openness_t3 <dbl>, openness_t4 <dbl>
…
